{
	"database":{
		"host": "localhost",
		"port": 3306,
		"user": "root",
		"password": "1234",
		"database": "mytrainingpoint"
	},
	"email":{
		"user": "nana.trainingpoint@gmail.com",
		"pass": "ZXCasd123"
	}
}